…
Other operating systems make this information available in other form.
This package provides the equivalent as a data frame, regardless of
operating system:

``` r
library(procmaps)
procmap_get()
#> Converting to tibble, mute this message with `as_tibble = TRUE`.
#> # A tibble: 371 x 7
#>    from      to       perms offset  dev     inode pathname                      
#>    <chr>     <chr>    <chr> <chr>   <chr>   <dbl> <chr>                         
#>  1 557e12de… 557e12d… r-xp  000000… 00:00  2.94e7 "/usr/lib/R/bin/exec/R"       
#>  2 557e12fe… 557e12f… r--p  000000… 00:00  2.94e7 "/usr/lib/R/bin/exec/R"       
#>  3 557e12fe… 557e12f… rw-p  000010… 00:00  2.94e7 "/usr/lib/R/bin/exec/R"       
#>  4 557e14da… 557e19b… rw-p  000000… 00:00  0.     "[heap]"                      
#>  5 7f2a79d1… 7f2a79d… r-xp  000000… 00:00  2.90e7 "/home/kirill/git/R/r-prof/pr…
#>  6 7f2a79d1… 7f2a79f… ---p  000040… 00:00  2.90e7 "/home/kirill/git/R/r-prof/pr…
#>  7 7f2a79f1… 7f2a79f… r--p  000030… 00:00  2.90e7 "/home/kirill/git/R/r-prof/pr…
#>  8 7f2a79f1… 7f2a79f… rw-p  000040… 00:00  2.90e7 "/home/kirill/git/R/r-prof/pr…
#>  9 7f2a79f1… 7f2a79f… rw-p  000000… 00:00  0.     ""                            
#> 10 7f2a79f1… 7f2a79f… r-xp  000000… 00:00  2.87e7 "/home/kirill/R-dev/glue/libs…
#> # … with 361 more rows
```
