Portable Address Space Mapping • procmaps
…
Other operating systems make this information available in other form. This package provides the equivalent as a data frame, regardless of operating system:

library(procmaps)
procmap_get()
#> Converting to tibble, mute this message with `as_tibble = TRUE`.
#> # A tibble: 378 x 6
#>    from         to          perms offset  inode  pathname                       
#>    <chr>        <chr>       <chr> <chr>   <chr>  <chr>                          
#>  1 000055cc2db… 000055cc2d… r-xp  000000… 29393… /usr/lib/R/bin/exec/R          
#>  2 000055cc2dd… 000055cc2d… r--p  000000… 29393… /usr/lib/R/bin/exec/R          
#>  3 000055cc2dd… 000055cc2d… rw-p  000010… 29393… /usr/lib/R/bin/exec/R          
#>  4 000055cc2e4… 000055cc33… rw-p  000000… 0      [heap]                         
#>  5 00007f9bac9… 00007f9bac… r-xp  000000… 28991… /home/kirill/git/R/r-prof/proc…
#>  6 00007f9bac9… 00007f9bac… ---p  000040… 28991… /home/kirill/git/R/r-prof/proc…
#>  7 00007f9bacb… 00007f9bac… r--p  000030… 28991… /home/kirill/git/R/r-prof/proc…
#>  8 00007f9bacb… 00007f9bac… rw-p  000040… 28991… /home/kirill/git/R/r-prof/proc…
#>  9 00007f9bacb… 00007f9bac… r-xp  000000… 28722… /home/kirill/R-dev/glue/libs/g…
#> 10 00007f9bacb… 00007f9bac… ---p  000020… 28722… /home/kirill/R-dev/glue/libs/g…
#> # … with 368 more rows
…
